{
    "page": 1,
    "per_page": 3,
    "total": 12,
    "total_pages": 4,
    "data": [
        {
            "id": 1,
            "first_name": "Dipti",
            "last_name": "Patel",
            "avatar": "https://s3.amazonaws.com/uifaces/faces/twitter/calebogden/128.jpg"
        },
        {
            "id": 2,
            "first_name": "Usha",
            "last_name": "name",
            "avatar": "https://s3.amazonaws.com/uifaces/faces/twitter/josephstein/128.jpg"
        },
        {
            "id": 3,
            "first_name": "Kanksha",
            "last_name": "Patel",
            "avatar": "https://s3.amazonaws.com/uifaces/faces/twitter/olegpogodaev/128.jpg"
        }
    ]
}